\relax 
\providecommand\hyper@newdestlabel[2]{}
\providecommand*{\memsetcounter}[2]{}
\catcode `"\active 
\providecommand\HyperFirstAtBeginDocument{\AtBeginDocument}
\HyperFirstAtBeginDocument{\ifx\hyper@anchor\@undefined
\global\let\oldcontentsline\contentsline
\gdef\contentsline#1#2#3#4{\oldcontentsline{#1}{#2}{#3}}
\global\let\oldnewlabel\newlabel
\gdef\newlabel#1#2{\newlabelxx{#1}#2}
\gdef\newlabelxx#1#2#3#4#5#6{\oldnewlabel{#1}{{#2}{#3}}}
\AtEndDocument{\ifx\hyper@anchor\@undefined
\let\contentsline\oldcontentsline
\let\newlabel\oldnewlabel
\fi}
\fi}
\global\let\hyper@last\relax 
\gdef\HyperFirstAtBeginDocument#1{#1}
\providecommand\HyField@AuxAddToFields[1]{}
\providecommand\HyField@AuxAddToCoFields[2]{}
\abx@aux@refcontext{nyt/global//global/global}
\babel@aux{danish}{}
\babel@aux{english}{}
\@writefile{toc}{\boolfalse {citerequest}\boolfalse {citetracker}\boolfalse {pagetracker}\boolfalse {backtracker}\relax }
\@writefile{lof}{\boolfalse {citerequest}\boolfalse {citetracker}\boolfalse {pagetracker}\boolfalse {backtracker}\relax }
\@writefile{lot}{\boolfalse {citerequest}\boolfalse {citetracker}\boolfalse {pagetracker}\boolfalse {backtracker}\relax }
\babel@aux{english}{}
\@writefile{toc}{\defcounter {refsection}{0}\relax }\@writefile{toc}{\contentsline {chapter}{Summary}{i}{Doc-Start}}
\@writefile{toc}{\defcounter {refsection}{0}\relax }\@writefile{toc}{\contentsline {chapter}{Resum\IeC {\'e}}{ii}{section*.1}}
\@writefile{toc}{\defcounter {refsection}{0}\relax }\@writefile{toc}{\contentsline {chapter}{Acknowledgements}{iii}{section*.2}}
\@writefile{lof}{\defcounter {refsection}{0}\relax }\@writefile{lof}{\addvspace {10pt}}
\@writefile{lot}{\defcounter {refsection}{0}\relax }\@writefile{lot}{\addvspace {10pt}}
\@writefile{toc}{\defcounter {refsection}{0}\relax }\@writefile{toc}{\contentsline {chapter}{\chapternumberline {1}Introduction}{1}{chapter.1}}
\newlabel{chap:intro}{{\M@TitleReference {1}{Introduction}}{1}{Introduction}{chapter.1}{}}
\newlabel{chap:intro@cref}{{[chapter][1][]1}{[1][1][]1}}
\abx@aux@cite{kvant}
\abx@aux@segm{0}{0}{kvant}
\abx@aux@segm{0}{0}{kvant}
\abx@aux@segm{0}{0}{kvant}
\@writefile{lof}{\defcounter {refsection}{0}\relax }\@writefile{lof}{\addvspace {10pt}}
\@writefile{lot}{\defcounter {refsection}{0}\relax }\@writefile{lot}{\addvspace {10pt}}
\@writefile{toc}{\defcounter {refsection}{0}\relax }\@writefile{toc}{\contentsline {chapter}{\chapternumberline {2}Theory}{2}{chapter.2}}
\@writefile{toc}{\defcounter {refsection}{0}\relax }\@writefile{toc}{\contentsline {section}{\numberline {2.1}The Schr\IeC {\"o}dinger equation}{2}{section.2.1}}
\newlabel{sec:schrodinger}{{\M@TitleReference {2.1}{The Schr\IeC {\"o}dinger equation}}{2}{The Schrödinger equation}{section.2.1}{}}
\newlabel{sec:schrodinger@cref}{{[section][1][2]2.1}{[1][2][]2}}
\newlabel{eq:timedepschrodinger}{{\M@TitleReference {2.1}{The Schr\IeC {\"o}dinger equation}}{2}{The Schrödinger equation}{equation.2.1.1}{}}
\newlabel{eq:timedepschrodinger@cref}{{[equation][1][2]2.1}{[1][2][]2}}
\abx@aux@page{1}{2}
\@writefile{toc}{\defcounter {refsection}{0}\relax }\@writefile{toc}{\contentsline {section}{\numberline {2.2}Adiabaticity in quantum mechanics}{2}{section.2.2}}
\newlabel{sec:adiab}{{\M@TitleReference {2.2}{Adiabaticity in quantum mechanics}}{2}{Adiabaticity in quantum mechanics}{section.2.2}{}}
\newlabel{sec:adiab@cref}{{[section][2][2]2.2}{[1][2][]2}}
\abx@aux@page{2}{2}
\@writefile{toc}{\defcounter {refsection}{0}\relax }\@writefile{toc}{\contentsline {subsection}{\numberline {2.2.1}The adiabatic theorem}{2}{subsection.2.2.1}}
\abx@aux@page{3}{2}
\abx@aux@segm{0}{0}{kvant}
\@writefile{toc}{\defcounter {refsection}{0}\relax }\@writefile{toc}{\contentsline {subsection}{\numberline {2.2.2}The adiabatic phase factors}{3}{subsection.2.2.2}}
\newlabel{subsec:proof}{{\M@TitleReference {2.2.2}{The adiabatic phase factors}}{3}{The adiabatic phase factors}{subsection.2.2.2}{}}
\newlabel{subsec:proof@cref}{{[subsection][2][2,2]2.2.2}{[1][3][]3}}
\abx@aux@page{4}{3}
\newlabel{eq:adiabsolutionschrodinger}{{\M@TitleReference {2.2}{The adiabatic phase factors}}{3}{The adiabatic phase factors}{equation.2.2.2}{}}
\newlabel{eq:adiabsolutionschrodinger@cref}{{[equation][2][2]2.2}{[1][3][]3}}
\newlabel{eq:coefficientslong}{{\M@TitleReference {2.6}{The adiabatic phase factors}}{4}{The adiabatic phase factors}{equation.2.2.6}{}}
\newlabel{eq:coefficientslong@cref}{{[equation][6][2]2.6}{[1][4][]4}}
\newlabel{eq:coeffdiff}{{\M@TitleReference {2.7}{The adiabatic phase factors}}{4}{The adiabatic phase factors}{equation.2.2.7}{}}
\newlabel{eq:coeffdiff@cref}{{[equation][7][2]2.7}{[1][4][]4}}
\abx@aux@cite{amo}
\abx@aux@segm{0}{0}{amo}
\@writefile{toc}{\defcounter {refsection}{0}\relax }\@writefile{toc}{\contentsline {section}{\numberline {2.3}Fidelity}{5}{section.2.3}}
\newlabel{sec:fidelity}{{\M@TitleReference {2.3}{Fidelity}}{5}{Fidelity}{section.2.3}{}}
\newlabel{sec:fidelity@cref}{{[section][3][2]2.3}{[1][4][]5}}
\newlabel{eq:fidelity}{{\M@TitleReference {2.9}{Fidelity}}{5}{Fidelity}{equation.2.3.9}{}}
\newlabel{eq:fidelity@cref}{{[equation][9][2]2.9}{[1][4][]5}}
\@writefile{toc}{\defcounter {refsection}{0}\relax }\@writefile{toc}{\contentsline {section}{\numberline {2.4}Bloch description}{5}{section.2.4}}
\newlabel{sec:bloch}{{\M@TitleReference {2.4}{Bloch description}}{5}{Bloch description}{section.2.4}{}}
\newlabel{sec:bloch@cref}{{[section][4][2]2.4}{[1][5][]5}}
\newlabel{eq:bloch}{{\M@TitleReference {2.10}{Bloch description}}{5}{Bloch description}{equation.2.4.10}{}}
\newlabel{eq:bloch@cref}{{[equation][10][2]2.10}{[1][5][]5}}
\abx@aux@page{5}{6}
\abx@aux@segm{0}{0}{kvant}
\@writefile{lof}{\defcounter {refsection}{0}\relax }\@writefile{lof}{\addvspace {10pt}}
\@writefile{lot}{\defcounter {refsection}{0}\relax }\@writefile{lot}{\addvspace {10pt}}
\@writefile{toc}{\defcounter {refsection}{0}\relax }\@writefile{toc}{\contentsline {chapter}{\chapternumberline {3}Spin system}{7}{chapter.3}}
\newlabel{chap:spin}{{\M@TitleReference {3}{Spin system}}{7}{Spin system}{chapter.3}{}}
\newlabel{chap:spin@cref}{{[chapter][3][]3}{[1][7][]7}}
\abx@aux@page{6}{7}
\@writefile{toc}{\defcounter {refsection}{0}\relax }\@writefile{toc}{\contentsline {section}{\numberline {3.1}Theory}{7}{section.3.1}}
\newlabel{sec:spintheory}{{\M@TitleReference {3.1}{Theory}}{7}{Theory}{section.3.1}{}}
\newlabel{sec:spintheory@cref}{{[section][1][3]3.1}{[1][7][]7}}
\newlabel{eq:spin}{{\M@TitleReference {3.1}{Theory}}{7}{Theory}{equation.3.1.1}{}}
\newlabel{eq:spin@cref}{{[equation][1][3]3.1}{[1][7][]7}}
\newlabel{eq:Bfield}{{\M@TitleReference {3.2}{Theory}}{7}{Theory}{equation.3.1.2}{}}
\newlabel{eq:Bfield@cref}{{[equation][2][3]3.2}{[1][7][]7}}
\newlabel{eq:Hamiltonian}{{\M@TitleReference {3.3}{Theory}}{7}{Theory}{equation.3.1.3}{}}
\newlabel{eq:Hamiltonian@cref}{{[equation][3][3]3.3}{[1][7][]7}}
\newlabel{eq:angles}{{\M@TitleReference {3.4}{Theory}}{7}{Theory}{equation.3.1.4}{}}
\newlabel{eq:angles@cref}{{[equation][4][3]3.4}{[1][7][]7}}
\@writefile{lof}{\defcounter {refsection}{0}\relax }\@writefile{lof}{\contentsline {figure}{\numberline {3.1}{\ignorespaces The eigenvalues of the spin system.\relax }}{8}{figure.caption.4}}
\providecommand*\caption@xref[2]{\@setref\relax\@undefined{#1}}
\newlabel{fig:spineigvals}{{\M@TitleReference {3.1}{The eigenvalues of the spin system.\relax }}{8}{The eigenvalues of the spin system.\relax }{figure.caption.4}{}}
\newlabel{fig:spineigvals@cref}{{[figure][1][3]3.1}{[1][8][]8}}
\@writefile{toc}{\defcounter {refsection}{0}\relax }\@writefile{toc}{\contentsline {subsection}{\numberline {3.1.1}Bloch illustration}{8}{subsection.3.1.1}}
\newlabel{subsec:blochspin}{{\M@TitleReference {3.1.1}{Bloch illustration}}{8}{Bloch illustration}{subsection.3.1.1}{}}
\newlabel{subsec:blochspin@cref}{{[subsection][1][3,1]3.1.1}{[1][8][]8}}
\@writefile{toc}{\defcounter {refsection}{0}\relax }\@writefile{toc}{\contentsline {subsection}{\numberline {3.1.2}Designing $\theta $}{8}{subsection.3.1.2}}
\newlabel{subsec:theta}{{\M@TitleReference {3.1.2}{Designing $\theta $}}{8}{Designing $\theta $}{subsection.3.1.2}{}}
\newlabel{subsec:theta@cref}{{[subsection][2][3,1]3.1.2}{[1][8][]8}}
\@writefile{lof}{\defcounter {refsection}{0}\relax }\@writefile{lof}{\contentsline {figure}{\numberline {3.2}{\ignorespaces The change from state $|\delimiter "3222378 \tmspace  +\thinmuskip {.1667em}\delimiter "526930B $ to state $|\delimiter "3223379 \tmspace  +\thinmuskip {.1667em}\delimiter "526930B $ is shown in the Bloch sphere. The red line shows the path and the blue arrow points to the end location. It is clear, that the restrictions in \cref  {eq:angles} are upheld.\relax }}{9}{figure.caption.5}}
\newlabel{fig:spinbloch}{{\M@TitleReference {3.2}{The change from state $|\delimiter "3222378 \tmspace  +\thinmuskip {.1667em}\delimiter "526930B $ to state $|\delimiter "3223379 \tmspace  +\thinmuskip {.1667em}\delimiter "526930B $ is shown in the Bloch sphere. The red line shows the path and the blue arrow points to the end location. It is clear, that the restrictions in \cref  {eq:angles} are upheld.\relax }}{9}{The change from state $|\uparrow \,\rangle $ to state $|\downarrow \,\rangle $ is shown in the Bloch sphere. The red line shows the path and the blue arrow points to the end location. It is clear, that the restrictions in \cref {eq:angles} are upheld.\relax }{figure.caption.5}{}}
\newlabel{fig:spinbloch@cref}{{[figure][2][3]3.2}{[1][8][]9}}
\@writefile{lof}{\defcounter {refsection}{0}\relax }\@writefile{lof}{\contentsline {figure}{\numberline {3.3}{\ignorespaces Two variations of $\theta $ is shown. The solid blue line illustrates a purely linear model with sharp edges at $t=0$ and $t=T$. The dashed red line shows a curve with rounded edges, however, it has a steeper middle part.\relax }}{10}{figure.caption.6}}
\newlabel{fig:theta}{{\M@TitleReference {3.3}{Two variations of $\theta $ is shown. The solid blue line illustrates a purely linear model with sharp edges at $t=0$ and $t=T$. The dashed red line shows a curve with rounded edges, however, it has a steeper middle part.\relax }}{10}{Two variations of $\theta $ is shown. The solid blue line illustrates a purely linear model with sharp edges at $t=0$ and $t=T$. The dashed red line shows a curve with rounded edges, however, it has a steeper middle part.\relax }{figure.caption.6}{}}
\newlabel{fig:theta@cref}{{[figure][3][3]3.3}{[1][8][]10}}
\@writefile{toc}{\defcounter {refsection}{0}\relax }\@writefile{toc}{\contentsline {section}{\numberline {3.2}Results}{10}{section.3.2}}
\@writefile{toc}{\defcounter {refsection}{0}\relax }\@writefile{toc}{\contentsline {subsection}{\numberline {3.2.1}Time}{10}{subsection.3.2.1}}
\@writefile{lof}{\defcounter {refsection}{0}\relax }\@writefile{lof}{\contentsline {figure}{\numberline {3.4}{\ignorespaces The analytical solution to the time-dependent Schr\IeC {\"o}dinger equation. Here it is seen, that as the population of state $|\delimiter "3222378 \delimiter "526930B $ (the red line denoted $|c_1|^2$) decreases while the population of state $|\delimiter "3223379 \delimiter "526930B $ (the blue line denoted $|c_2|^2$) increases. In the analytical solution they go from exactly 1 and 0 to exactly 0 and 1, respectively.\relax }}{11}{figure.caption.7}}
\newlabel{fig:spinanalytical}{{\M@TitleReference {3.4}{The analytical solution to the time-dependent Schr\IeC {\"o}dinger equation. Here it is seen, that as the population of state $|\delimiter "3222378 \delimiter "526930B $ (the red line denoted $|c_1|^2$) decreases while the population of state $|\delimiter "3223379 \delimiter "526930B $ (the blue line denoted $|c_2|^2$) increases. In the analytical solution they go from exactly 1 and 0 to exactly 0 and 1, respectively.\relax }}{11}{The analytical solution to the time-dependent Schrödinger equation. Here it is seen, that as the population of state $|\uparrow \rangle $ (the red line denoted $|c_1|^2$) decreases while the population of state $|\downarrow \rangle $ (the blue line denoted $|c_2|^2$) increases. In the analytical solution they go from exactly 1 and 0 to exactly 0 and 1, respectively.\relax }{figure.caption.7}{}}
\newlabel{fig:spinanalytical@cref}{{[figure][4][3]3.4}{[1][10][]11}}
\@writefile{lof}{\defcounter {refsection}{0}\relax }\@writefile{lof}{\contentsline {figure}{\numberline {3.5}{\ignorespaces On the left-hand side, six numerical solutions to the Schr\IeC {\"o}dinger equation is found. The red line is the population of $|\delimiter "3222378 \tmspace  +\thinmuskip {.1667em}\delimiter "526930B $ and the blue line is the population of $|\delimiter "3223379 \delimiter "526930B $. On the right-hand side, the comparison between the numerical solutions and the analytical one is shown as fidelities. On the $x$-axis, $t/T$ is shown to make comparison easier despite the variable time scales. This figure contains varied values of $a$ such that both the adiabatic and non-adiabatic solutions are seen.\relax }}{12}{figure.caption.8}}
\newlabel{fig:spintid}{{\M@TitleReference {3.5}{On the left-hand side, six numerical solutions to the Schr\IeC {\"o}dinger equation is found. The red line is the population of $|\delimiter "3222378 \tmspace  +\thinmuskip {.1667em}\delimiter "526930B $ and the blue line is the population of $|\delimiter "3223379 \delimiter "526930B $. On the right-hand side, the comparison between the numerical solutions and the analytical one is shown as fidelities. On the $x$-axis, $t/T$ is shown to make comparison easier despite the variable time scales. This figure contains varied values of $a$ such that both the adiabatic and non-adiabatic solutions are seen.\relax }}{12}{On the left-hand side, six numerical solutions to the Schrödinger equation is found. The red line is the population of $|\uparrow \,\rangle $ and the blue line is the population of $|\downarrow \rangle $. On the right-hand side, the comparison between the numerical solutions and the analytical one is shown as fidelities. On the $x$-axis, $t/T$ is shown to make comparison easier despite the variable time scales. This figure contains varied values of $a$ such that both the adiabatic and non-adiabatic solutions are seen.\relax }{figure.caption.8}{}}
\newlabel{fig:spintid@cref}{{[figure][5][3]3.5}{[1][10][]12}}
\@writefile{lof}{\defcounter {refsection}{0}\relax }\@writefile{lof}{\contentsline {figure}{\numberline {3.6}{\ignorespaces On the left-hand side, six numerical solutions to the Schr\IeC {\"o}dinger equation is found. The red line is the population of $|\delimiter "3222378 \tmspace  +\thinmuskip {.1667em}\delimiter "526930B $ and the blue line is the population of $|\delimiter "3223379 \delimiter "526930B $. On the right-hand side, the comparison between the numerical solutions and the analytical one is shown as fidelities. On the $x$-axis, $t/T$ is shown to make comparison easier despite the variable time scales. This figure contains very small values of $a$ such that the adiabatic approximation holds for all six solutions.\relax }}{13}{figure.caption.9}}
\newlabel{fig:spintidlillea}{{\M@TitleReference {3.6}{On the left-hand side, six numerical solutions to the Schr\IeC {\"o}dinger equation is found. The red line is the population of $|\delimiter "3222378 \tmspace  +\thinmuskip {.1667em}\delimiter "526930B $ and the blue line is the population of $|\delimiter "3223379 \delimiter "526930B $. On the right-hand side, the comparison between the numerical solutions and the analytical one is shown as fidelities. On the $x$-axis, $t/T$ is shown to make comparison easier despite the variable time scales. This figure contains very small values of $a$ such that the adiabatic approximation holds for all six solutions.\relax }}{13}{On the left-hand side, six numerical solutions to the Schrödinger equation is found. The red line is the population of $|\uparrow \,\rangle $ and the blue line is the population of $|\downarrow \rangle $. On the right-hand side, the comparison between the numerical solutions and the analytical one is shown as fidelities. On the $x$-axis, $t/T$ is shown to make comparison easier despite the variable time scales. This figure contains very small values of $a$ such that the adiabatic approximation holds for all six solutions.\relax }{figure.caption.9}{}}
\newlabel{fig:spintidlillea@cref}{{[figure][6][3]3.6}{[1][10][]13}}
\@writefile{toc}{\defcounter {refsection}{0}\relax }\@writefile{toc}{\contentsline {subsection}{\numberline {3.2.2}The power of $t$}{14}{subsection.3.2.2}}
\@writefile{lof}{\defcounter {refsection}{0}\relax }\@writefile{lof}{\contentsline {figure}{\numberline {3.7}{\ignorespaces The left side shows six numerical solutions to the Schr\IeC {\"o}dinger equation, where the red and blue lines represent the populations of states $|\delimiter "3222378 \tmspace  +\thinmuskip {.1667em}\delimiter "526930B $ and $|\delimiter "3223379 \tmspace  +\thinmuskip {.1667em}\delimiter "526930B $ respectively. The right side shows the fidelities of the adiabatic solutions compared to the analytical solution.\relax }}{15}{figure.caption.10}}
\newlabel{fig:spinpotens}{{\M@TitleReference {3.7}{The left side shows six numerical solutions to the Schr\IeC {\"o}dinger equation, where the red and blue lines represent the populations of states $|\delimiter "3222378 \tmspace  +\thinmuskip {.1667em}\delimiter "526930B $ and $|\delimiter "3223379 \tmspace  +\thinmuskip {.1667em}\delimiter "526930B $ respectively. The right side shows the fidelities of the adiabatic solutions compared to the analytical solution.\relax }}{15}{The left side shows six numerical solutions to the Schrödinger equation, where the red and blue lines represent the populations of states $|\uparrow \,\rangle $ and $|\downarrow \,\rangle $ respectively. The right side shows the fidelities of the adiabatic solutions compared to the analytical solution.\relax }{figure.caption.10}{}}
\newlabel{fig:spinpotens@cref}{{[figure][7][3]3.7}{[1][12][]15}}
\abx@aux@cite{3levelsnote}
\abx@aux@segm{0}{0}{3levelsnote}
\abx@aux@segm{0}{0}{3levelsnote}
\abx@aux@segm{0}{0}{3levelsnote}
\abx@aux@cite{nogetmedrydberg}
\abx@aux@segm{0}{0}{nogetmedrydberg}
\abx@aux@segm{0}{0}{3levelsnote}
\@writefile{lof}{\defcounter {refsection}{0}\relax }\@writefile{lof}{\addvspace {10pt}}
\@writefile{lot}{\defcounter {refsection}{0}\relax }\@writefile{lot}{\addvspace {10pt}}
\@writefile{toc}{\defcounter {refsection}{0}\relax }\@writefile{toc}{\contentsline {chapter}{\chapternumberline {4}STIRAP}{16}{chapter.4}}
\newlabel{chap:stirap}{{\M@TitleReference {4}{STIRAP}}{16}{STIRAP}{chapter.4}{}}
\newlabel{chap:stirap@cref}{{[chapter][4][]4}{[1][16][]16}}
\abx@aux@page{7}{16}
\@writefile{toc}{\defcounter {refsection}{0}\relax }\@writefile{toc}{\contentsline {section}{\numberline {4.1}Theory}{16}{section.4.1}}
\newlabel{sec:stiraptheory}{{\M@TitleReference {4.1}{Theory}}{16}{Theory}{section.4.1}{}}
\newlabel{sec:stiraptheory@cref}{{[section][1][4]4.1}{[1][16][]16}}
\abx@aux@page{10}{16}
\@writefile{lof}{\defcounter {refsection}{0}\relax }\@writefile{lof}{\contentsline {figure}{\numberline {4.1}{\ignorespaces In the STIRAP system, the three energy states can be coupled in three different formations leading to the ladder- (a), the $\Lambda $- (b) and the V-systems. $\Omega _1$ and $\Omega _2$ are the amplitudes of the couplings between the states. This figure is inspired by the first figure in \cite {3levelsnote}.\relax }}{16}{figure.caption.11}}
\newlabel{fig:layoutstirap}{{\M@TitleReference {4.1}{In the STIRAP system, the three energy states can be coupled in three different formations leading to the ladder- (a), the $\Lambda $- (b) and the V-systems. $\Omega _1$ and $\Omega _2$ are the amplitudes of the couplings between the states. This figure is inspired by the first figure in \cite {3levelsnote}.\relax }}{16}{In the STIRAP system, the three energy states can be coupled in three different formations leading to the ladder- (a), the $\Lambda $- (b) and the V-systems. $\Omega _1$ and $\Omega _2$ are the amplitudes of the couplings between the states. This figure is inspired by the first figure in \cite {3levelsnote}.\relax }{figure.caption.11}{}}
\newlabel{fig:layoutstirap@cref}{{[figure][1][4]4.1}{[1][16][]16}}
\abx@aux@segm{0}{0}{amo}
\abx@aux@page{11}{17}
\@writefile{toc}{\defcounter {refsection}{0}\relax }\@writefile{toc}{\contentsline {subsection}{\numberline {4.1.1}Bloch illustration}{17}{subsection.4.1.1}}
\newlabel{subsec:blochstirap}{{\M@TitleReference {4.1.1}{Bloch illustration}}{17}{Bloch illustration}{subsection.4.1.1}{}}
\newlabel{subsec:blochstirap@cref}{{[subsection][1][4,1]4.1.1}{[1][17][]17}}
\newlabel{eq:blochdiff}{{\M@TitleReference {4.3}{Bloch illustration}}{17}{Bloch illustration}{equation.4.1.3}{}}
\newlabel{eq:blochdiff@cref}{{[equation][3][4]4.3}{[1][17][]17}}
\abx@aux@cite{STIRAP}
\abx@aux@segm{0}{0}{STIRAP}
\@writefile{lof}{\defcounter {refsection}{0}\relax }\@writefile{lof}{\contentsline {figure}{\numberline {4.2}{\ignorespaces The eigenvalues of the STIRAP system.\relax }}{18}{figure.caption.12}}
\newlabel{fig:stirapeigvals}{{\M@TitleReference {4.2}{The eigenvalues of the STIRAP system.\relax }}{18}{The eigenvalues of the STIRAP system.\relax }{figure.caption.12}{}}
\newlabel{fig:stirapeigvals@cref}{{[figure][2][4]4.2}{[1][17][]18}}
\abx@aux@page{12}{18}
\abx@aux@page{13}{18}
\@writefile{lof}{\defcounter {refsection}{0}\relax }\@writefile{lof}{\contentsline {figure}{\numberline {4.3}{\ignorespaces The change from state $|1\delimiter "526930B $ to state $|3\delimiter "526930B $ is shown by the red line in the Bloch sphere. The blue arrow points to the end point on the equator, where all population has changed from the first state to the last.\relax }}{19}{figure.caption.13}}
\newlabel{fig:stirapbloch}{{\M@TitleReference {4.3}{The change from state $|1\delimiter "526930B $ to state $|3\delimiter "526930B $ is shown by the red line in the Bloch sphere. The blue arrow points to the end point on the equator, where all population has changed from the first state to the last.\relax }}{19}{The change from state $|1\rangle $ to state $|3\rangle $ is shown by the red line in the Bloch sphere. The blue arrow points to the end point on the equator, where all population has changed from the first state to the last.\relax }{figure.caption.13}{}}
\newlabel{fig:stirapbloch@cref}{{[figure][3][4]4.3}{[1][18][]19}}
\@writefile{toc}{\defcounter {refsection}{0}\relax }\@writefile{toc}{\contentsline {subsection}{\numberline {4.1.2}Designing $\Omega $}{19}{subsection.4.1.2}}
\newlabel{subsec:omega}{{\M@TitleReference {4.1.2}{Designing $\Omega $}}{19}{Designing $\Omega $}{subsection.4.1.2}{}}
\newlabel{subsec:omega@cref}{{[subsection][2][4,1]4.1.2}{[1][19][]19}}
\@writefile{lof}{\defcounter {refsection}{0}\relax }\@writefile{lof}{\contentsline {figure}{\numberline {4.4}{\ignorespaces Two possibilities for the coupling amplitudes. The red and blue lines are $\Omega _1$ and $\Omega _2$, respectively. They have rounded edges following $\qopname  \relax o{sin}^3$ in the low values of $\Omega _i(t)$ and changing to $\qopname  \relax o{sin}^1$ for the middle part. The dashed black lines show $\qopname  \relax o{sin}^1$ all the way. These clearly have shard edges along the $x$-axis, and they are wider.\relax }}{20}{figure.caption.14}}
\newlabel{fig:omega}{{\M@TitleReference {4.4}{Two possibilities for the coupling amplitudes. The red and blue lines are $\Omega _1$ and $\Omega _2$, respectively. They have rounded edges following $\qopname  \relax o{sin}^3$ in the low values of $\Omega _i(t)$ and changing to $\qopname  \relax o{sin}^1$ for the middle part. The dashed black lines show $\qopname  \relax o{sin}^1$ all the way. These clearly have shard edges along the $x$-axis, and they are wider.\relax }}{20}{Two possibilities for the coupling amplitudes. The red and blue lines are $\Omega _1$ and $\Omega _2$, respectively. They have rounded edges following $\sin ^3$ in the low values of $\Omega _i(t)$ and changing to $\sin ^1$ for the middle part. The dashed black lines show $\sin ^1$ all the way. These clearly have shard edges along the $x$-axis, and they are wider.\relax }{figure.caption.14}{}}
\newlabel{fig:omega@cref}{{[figure][4][4]4.4}{[1][19][]20}}
\@writefile{toc}{\defcounter {refsection}{0}\relax }\@writefile{toc}{\contentsline {section}{\numberline {4.2}Results}{20}{section.4.2}}
\@writefile{lof}{\defcounter {refsection}{0}\relax }\@writefile{lof}{\contentsline {figure}{\numberline {4.5}{\ignorespaces The analytical solution to the time-dependent Schr\IeC {\"o}dinger equation. The populations of the three states are seen and it is evident, that the population of state $|2\delimiter "526930B $ should be 0 throughout the process while the two other states switch.\relax }}{21}{figure.caption.15}}
\newlabel{fig:stirapanalytical}{{\M@TitleReference {4.5}{The analytical solution to the time-dependent Schr\IeC {\"o}dinger equation. The populations of the three states are seen and it is evident, that the population of state $|2\delimiter "526930B $ should be 0 throughout the process while the two other states switch.\relax }}{21}{The analytical solution to the time-dependent Schrödinger equation. The populations of the three states are seen and it is evident, that the population of state $|2\rangle $ should be 0 throughout the process while the two other states switch.\relax }{figure.caption.15}{}}
\newlabel{fig:stirapanalytical@cref}{{[figure][5][4]4.5}{[1][20][]21}}
\@writefile{toc}{\defcounter {refsection}{0}\relax }\@writefile{toc}{\contentsline {subsection}{\numberline {4.2.1}Time}{21}{subsection.4.2.1}}
\@writefile{lof}{\defcounter {refsection}{0}\relax }\@writefile{lof}{\contentsline {figure}{\numberline {4.6}{\ignorespaces The left side shows six numerical solutions to the Schr\IeC {\"o}dinger equation where the total time varies from low to high numbers. The right side shows the corresponding fidelities. On the $x$-axis, $t/T$ is shown for easier comparison. This figure includes values of $T$ that both adhere to the adiabatic approximation and some that do not.\relax }}{22}{figure.caption.16}}
\newlabel{fig:stiraptid}{{\M@TitleReference {4.6}{The left side shows six numerical solutions to the Schr\IeC {\"o}dinger equation where the total time varies from low to high numbers. The right side shows the corresponding fidelities. On the $x$-axis, $t/T$ is shown for easier comparison. This figure includes values of $T$ that both adhere to the adiabatic approximation and some that do not.\relax }}{22}{The left side shows six numerical solutions to the Schrödinger equation where the total time varies from low to high numbers. The right side shows the corresponding fidelities. On the $x$-axis, $t/T$ is shown for easier comparison. This figure includes values of $T$ that both adhere to the adiabatic approximation and some that do not.\relax }{figure.caption.16}{}}
\newlabel{fig:stiraptid@cref}{{[figure][6][4]4.6}{[1][21][]22}}
\@writefile{lof}{\defcounter {refsection}{0}\relax }\@writefile{lof}{\contentsline {figure}{\numberline {4.7}{\ignorespaces The left side shows six numerical solutions to the Schr\IeC {\"o}dinger equation where the total time varies from low to high numbers. The right side shows the corresponding fidelities. On the $x$-axis, $t/T$ is shown for easier comparison. This figure includes very large values of $T$ such that the adiabatic approximation holds for all six solutions.\relax }}{23}{figure.caption.17}}
\newlabel{fig:stiraptidmegetstort}{{\M@TitleReference {4.7}{The left side shows six numerical solutions to the Schr\IeC {\"o}dinger equation where the total time varies from low to high numbers. The right side shows the corresponding fidelities. On the $x$-axis, $t/T$ is shown for easier comparison. This figure includes very large values of $T$ such that the adiabatic approximation holds for all six solutions.\relax }}{23}{The left side shows six numerical solutions to the Schrödinger equation where the total time varies from low to high numbers. The right side shows the corresponding fidelities. On the $x$-axis, $t/T$ is shown for easier comparison. This figure includes very large values of $T$ such that the adiabatic approximation holds for all six solutions.\relax }{figure.caption.17}{}}
\newlabel{fig:stiraptidmegetstort@cref}{{[figure][7][4]4.7}{[1][21][]23}}
\@writefile{toc}{\defcounter {refsection}{0}\relax }\@writefile{toc}{\contentsline {subsection}{\numberline {4.2.2}The power of the sine}{23}{subsection.4.2.2}}
\@writefile{lof}{\defcounter {refsection}{0}\relax }\@writefile{lof}{\contentsline {figure}{\numberline {4.8}{\ignorespaces The left part of the figure contains six numerical solutions to the Schr\IeC {\"o}dinger equations with differing coupling amplitudes. The coupling amplitudes follow a sine in the beginning and the end and this sine is raised to a variable power. Their individual fidelities are plotted on the right side, where clear oscillations are seen.\relax }}{24}{figure.caption.18}}
\newlabel{fig:stirappotens}{{\M@TitleReference {4.8}{The left part of the figure contains six numerical solutions to the Schr\IeC {\"o}dinger equations with differing coupling amplitudes. The coupling amplitudes follow a sine in the beginning and the end and this sine is raised to a variable power. Their individual fidelities are plotted on the right side, where clear oscillations are seen.\relax }}{24}{The left part of the figure contains six numerical solutions to the Schrödinger equations with differing coupling amplitudes. The coupling amplitudes follow a sine in the beginning and the end and this sine is raised to a variable power. Their individual fidelities are plotted on the right side, where clear oscillations are seen.\relax }{figure.caption.18}{}}
\newlabel{fig:stirappotens@cref}{{[figure][8][4]4.8}{[1][22][]24}}
\abx@aux@cite{degenereret}
\abx@aux@segm{0}{0}{degenereret}
\@writefile{lof}{\defcounter {refsection}{0}\relax }\@writefile{lof}{\addvspace {10pt}}
\@writefile{lot}{\defcounter {refsection}{0}\relax }\@writefile{lot}{\addvspace {10pt}}
\@writefile{toc}{\defcounter {refsection}{0}\relax }\@writefile{toc}{\contentsline {chapter}{\chapternumberline {5}Discussion}{25}{chapter.5}}
\abx@aux@page{14}{27}
\@writefile{lof}{\defcounter {refsection}{0}\relax }\@writefile{lof}{\addvspace {10pt}}
\@writefile{lot}{\defcounter {refsection}{0}\relax }\@writefile{lot}{\addvspace {10pt}}
\@writefile{toc}{\defcounter {refsection}{0}\relax }\@writefile{toc}{\contentsline {chapter}{\chapternumberline {6}Conclusion}{28}{chapter.6}}
\abx@aux@refcontextdefaultsdone
\abx@aux@defaultrefcontext{0}{amo}{nyt/global//global/global}
\abx@aux@defaultrefcontext{0}{kvant}{nyt/global//global/global}
\abx@aux@defaultrefcontext{0}{degenereret}{nyt/global//global/global}
\abx@aux@defaultrefcontext{0}{3levelsnote}{nyt/global//global/global}
\abx@aux@defaultrefcontext{0}{nogetmedrydberg}{nyt/global//global/global}
\abx@aux@defaultrefcontext{0}{STIRAP}{nyt/global//global/global}
\@writefile{toc}{\defcounter {refsection}{0}\relax }\@writefile{toc}{\contentsline {chapter}{Bibliography}{29}{section*.20}}
\abx@aux@page{15}{29}
\abx@aux@page{16}{29}
\abx@aux@page{17}{29}
\abx@aux@page{18}{29}
\abx@aux@page{19}{29}
\abx@aux@page{20}{29}
\memsetcounter{lastsheet}{34}
\memsetcounter{lastpage}{29}
